{
    "Program": {
        "DeviceName": "HBLUZ_1",
        "ProgramName": "Phalaenopsis",
        "SyncTime": "00:43:31",
        "SyncDate": "2017-08-06",
        "ProgramDateStart": "2017-08-03",
        "PulseFrequency": 1000,
        "Lightsettings": {
            "Lightsetting": [{
                    "Description": "Morgens Blau",
                    "RelativeStart": 0,
                    "Duration": 1,
                    "TimeStart": "01:00",
                    "TimeEnd": "02:00",
                    "Intensity": 50,
                    "ChannelID": 1
                },
                {
                    "Description": "Mittags Rot",
                    "RelativeStart": 1,
                    "Duration": 5,
                    "TimeStart": "02:00",
                    "TimeEnd": "03:00",
                    "Intensity": 100,
                    "ChannelID": 3
                }
            ]
        },
        "Calibrations": {
            "Calibration": [{
                    "ChannelID": 1,
                    "a": 0.082
                },
                {
                    "ChannelID": 2,
                    "a": 0.082
                },
                {
                    "ChannelID": 3,
                    "a": 0.182
                },
                {
                    "ChannelID": 4,
                    "a": 0.082
                },
                {
                    "ChannelID": 5,
                    "a": 0.082
                },
                {
                    "ChannelID": 6,
                    "a": 0.082
                }
            ]
        }
    }
}