<?xml version="1.0" encoding="utf-8"?>
<!-- Generator: Adobe Illustrator 16.0.0, SVG Export Plug-In . SVG Version: 6.00 Build 0)  -->
<!DOCTYPE svg PUBLIC "-//W3C//DTD SVG 1.1//EN" "http://www.w3.org/Graphics/SVG/1.1/DTD/svg11.dtd">
<svg version="1.1" id="Layer_1" xmlns="http://www.w3.org/2000/svg" xmlns:xlink="http://www.w3.org/1999/xlink" x="0px" y="0px"
	 width="336.211px" height="119.572px" viewBox="0 0 336.211 119.572" enable-background="new 0 0 336.211 119.572"
	 xml:space="preserve">
<g>
	<path fill="#FFFFFF" d="M104.627,20.538l28.02,48.533H121.63L93.61,20.538H104.627z"/>
	<path fill="#FFFFFF" d="M172.467,50.493c-3.583-5.833-7.873-12.889-11.947-19.946h-0.216c2.063,6.192,4.037,13.105,5.449,18.793
		l5.029,18.938h-8.569l-16.035-18.793c-4.868-5.688-10.516-12.602-15.326-18.938h-0.144c3.495,6.553,7.603,14.041,10.734,20.09
		l9.778,18.434h-10.152l-24.924-48.533h14.617l14.106,16.202c4.755,5.617,9.759,11.666,14.123,17.354h0.216
		c-1.875-5.617-3.918-12.026-5.452-17.426l-4.128-16.13h14.33l30.684,48.533h-10.729L172.467,50.493z"/>
	<path fill="#FFFFFF" d="M175.041,20.538h11.017l22.699,39.316h19.298l5.321,9.217h-30.315L175.041,20.538z"/>
	<path fill="#FFFFFF" d="M243.965,56.613l3.736,12.457h-11.377l-13.187-48.533h14.401l43.069,48.533h-11.809l-10.937-12.457H243.965
		z M251.539,48.405l-8.969-10.297c-2.527-2.88-5.47-6.481-7.853-9.361h-0.144c0.943,2.88,2.343,6.553,3.172,9.361l3.065,10.297
		H251.539z"/>
	<path fill="#FFFFFF" d="M259.438,21.186c2.548-0.576,8.131-1.007,13.604-1.007c6.697,0,11.175,0.648,15.909,2.736
		c4.423,1.8,8.784,5.113,11.319,9.504c2.495,4.321,2.303,8.354-2.006,10.37l0.084,0.144c6.417,1.512,12.933,5.688,16.549,11.953
		c2.537,4.393,2.516,7.849,0.904,10.297c-1.906,2.809-6.896,4.393-16.545,4.393c-5.4,0-9.641-0.36-12.297-0.72L259.438,21.186z
		 M281.037,39.764h3.6c5.761,0,7.485-2.376,5.406-5.977c-2.12-3.672-6.051-5.617-11.02-5.617c-2.376,0-3.661,0.144-4.514,0.289
		L281.037,39.764z M293.467,61.293c1.163,0.144,2.459,0.144,4.332,0.144c4.968,0,8.279-1.873,5.328-6.985
		c-2.827-4.896-8.342-6.84-13.814-6.84h-3.744L293.467,61.293z"/>
</g>
<g>
	<path fill="#FFFFFF" d="M18.185,18.922c5.589-0.989,13.302-1.539,21.771-1.539c14.08,0,24.671,2.529,34.933,7.919
		c11.002,5.72,21.113,14.849,28.671,27.939c8.192,14.19,8.675,23.98,5.018,30.03c-4.063,6.49-14.165,9.569-28.686,9.569
		c-8.69,0-15.167-0.55-19.665-1.1L18.185,18.922z M69.944,79.422c1.62,0.33,3.93,0.33,6.021,0.33
		c15.243,0.11,20.316-8.25,10.092-25.96c-8.78-15.399-22.5-23.539-36.91-23.539c-3.74,0-5.97,0.33-7.209,0.66L69.944,79.422z"/>
</g>
<g>
	<path fill="#FFFFFF" d="M122.049,87.834c0.046-0.735,0.092-2.093,0.092-3.357V71.508h3.495v6.415h0.046
		c0.667-0.966,1.84-1.586,3.403-1.586c2.69,0,4.668,2.23,4.645,5.68c0,4.047-2.576,6.07-5.151,6.07c-1.311,0-2.576-0.482-3.38-1.816
		h-0.046l-0.138,1.563H122.049z M125.637,83.051c0,0.23,0.023,0.438,0.069,0.621c0.23,0.942,1.035,1.655,2.047,1.655
		c1.495,0,2.414-1.149,2.414-3.173c0-1.748-0.782-3.127-2.414-3.127c-0.943,0-1.817,0.712-2.047,1.725
		c-0.046,0.206-0.069,0.413-0.069,0.644V83.051z"/>
	<path fill="#FFFFFF" d="M138.31,76.59l1.679,5.519c0.184,0.667,0.414,1.494,0.552,2.093h0.069c0.161-0.599,0.345-1.449,0.506-2.093
		l1.379-5.519h3.749l-2.622,7.404c-1.609,4.461-2.69,6.254-3.955,7.381c-1.219,1.058-2.506,1.426-3.38,1.541l-0.736-2.967
		c0.437-0.068,0.989-0.275,1.518-0.598c0.529-0.275,1.104-0.828,1.449-1.402c0.115-0.161,0.184-0.345,0.184-0.506
		c0-0.115-0.023-0.299-0.161-0.575l-4.116-10.278H138.31z"/>
	<path fill="#FFFFFF" d="M165.723,90.501c-2.208-0.644-4.047-1.311-6.117-2.185c-0.345-0.138-0.713-0.206-1.081-0.229
		c-3.495-0.229-6.761-2.806-6.761-7.864c0-4.645,2.943-8.141,7.565-8.141c4.737,0,7.335,3.588,7.335,7.818
		c0,3.519-1.633,6.002-3.679,6.922v0.092c1.196,0.345,2.529,0.621,3.748,0.874L165.723,90.501z M162.964,80.04
		c0-2.829-1.333-5.174-3.725-5.174s-3.771,2.345-3.771,5.242c-0.023,2.943,1.403,5.197,3.749,5.197
		C161.584,85.305,162.964,83.075,162.964,80.04z"/>
	<path fill="#FFFFFF" d="M179.57,84.224c0,1.472,0.046,2.668,0.092,3.61h-3.035l-0.161-1.587h-0.069
		c-0.437,0.69-1.495,1.84-3.518,1.84c-2.277,0-3.955-1.426-3.955-4.897v-6.6h3.518v6.047c0,1.633,0.529,2.622,1.748,2.622
		c0.966,0,1.518-0.667,1.748-1.219c0.092-0.207,0.115-0.483,0.115-0.759V76.59h3.518V84.224z"/>
	<path fill="#FFFFFF" d="M188.771,87.834l-0.207-1.127h-0.069c-0.736,0.897-1.886,1.38-3.219,1.38c-2.277,0-3.633-1.655-3.633-3.449
		c0-2.92,2.621-4.323,6.6-4.3v-0.161c0-0.598-0.322-1.449-2.047-1.449c-1.149,0-2.368,0.392-3.104,0.852l-0.644-2.254
		c0.782-0.437,2.322-0.988,4.369-0.988c3.748,0,4.944,2.207,4.944,4.852v3.909c0,1.081,0.046,2.115,0.161,2.736H188.771z
		 M188.356,82.523c-1.839-0.023-3.265,0.414-3.265,1.771c0,0.896,0.598,1.333,1.379,1.333c0.874,0,1.587-0.574,1.817-1.287
		c0.046-0.184,0.069-0.391,0.069-0.598V82.523z"/>
	<path fill="#FFFFFF" d="M194.522,80.177c0-1.402-0.046-2.599-0.092-3.587h3.036l0.161,1.54h0.069
		c0.46-0.713,1.609-1.793,3.472-1.793c2.299,0,4.024,1.518,4.024,4.828v6.669h-3.495v-6.231c0-1.449-0.506-2.438-1.771-2.438
		c-0.966,0-1.541,0.667-1.771,1.311c-0.092,0.207-0.138,0.552-0.138,0.874v6.484h-3.495V80.177z"/>
	<path fill="#FFFFFF" d="M211.771,73.371v3.22h2.506v2.575h-2.506v4.07c0,1.356,0.322,1.978,1.379,1.978
		c0.437,0,0.782-0.046,1.035-0.093l0.023,2.645c-0.46,0.185-1.288,0.299-2.277,0.299c-1.126,0-2.069-0.391-2.621-0.965
		c-0.644-0.667-0.966-1.748-0.966-3.335v-4.599h-1.495V76.59h1.495v-2.438L211.771,73.371z"/>
	<path fill="#FFFFFF" d="M222.695,87.834l-0.207-1.127h-0.069c-0.736,0.897-1.886,1.38-3.219,1.38c-2.277,0-3.633-1.655-3.633-3.449
		c0-2.92,2.621-4.323,6.6-4.3v-0.161c0-0.598-0.322-1.449-2.047-1.449c-1.149,0-2.368,0.392-3.104,0.852l-0.644-2.254
		c0.782-0.437,2.322-0.988,4.369-0.988c3.748,0,4.944,2.207,4.944,4.852v3.909c0,1.081,0.046,2.115,0.161,2.736H222.695z
		 M222.281,82.523c-1.839-0.023-3.265,0.414-3.265,1.771c0,0.896,0.598,1.333,1.379,1.333c0.874,0,1.587-0.574,1.817-1.287
		c0.046-0.184,0.069-0.391,0.069-0.598V82.523z"/>
	<path fill="#FFFFFF" d="M233.208,72.542c0.92-0.184,2.783-0.321,4.53-0.321c2.138,0,3.449,0.207,4.576,0.873
		c1.081,0.575,1.863,1.633,1.863,3.036c0,1.379-0.805,2.667-2.553,3.311v0.046c1.771,0.483,3.082,1.817,3.082,3.817
		c0,1.403-0.644,2.507-1.61,3.288c-1.126,0.897-3.012,1.403-6.093,1.403c-1.725,0-3.013-0.115-3.794-0.23V72.542z M236.68,78.475
		h1.15c1.84,0,2.829-0.759,2.829-1.908c0-1.173-0.897-1.794-2.484-1.794c-0.759,0-1.195,0.046-1.495,0.093V78.475z M236.68,85.351
		c0.345,0.046,0.759,0.046,1.357,0.046c1.586,0,2.989-0.598,2.989-2.23c0-1.563-1.403-2.185-3.15-2.185h-1.196V85.351z"/>
	<path fill="#FFFFFF" d="M250.594,73.462c0,0.966-0.736,1.748-1.885,1.748c-1.104,0-1.84-0.782-1.817-1.748
		c-0.023-1.012,0.713-1.771,1.84-1.771C249.858,71.692,250.571,72.451,250.594,73.462z M246.984,87.834V76.59h3.495v11.244H246.984z
		"/>
	<path fill="#FFFFFF" d="M264.393,82.085c0,4.116-2.92,6.002-5.933,6.002c-3.289,0-5.818-2.161-5.818-5.795
		c0-3.633,2.392-5.955,6.002-5.955C262.093,76.337,264.393,78.706,264.393,82.085z M256.252,82.201c0,1.932,0.805,3.38,2.299,3.38
		c1.357,0,2.23-1.356,2.23-3.38c0-1.679-0.644-3.38-2.23-3.38C256.873,78.821,256.252,80.545,256.252,82.201z"/>
	<path fill="#FFFFFF" d="M266.557,71.508h3.495v16.326h-3.495V71.508z"/>
	<path fill="#FFFFFF" d="M279.274,87.834l-0.207-1.127h-0.069c-0.736,0.897-1.886,1.38-3.219,1.38c-2.277,0-3.633-1.655-3.633-3.449
		c0-2.92,2.621-4.323,6.6-4.3v-0.161c0-0.598-0.322-1.449-2.047-1.449c-1.149,0-2.368,0.392-3.104,0.852l-0.644-2.254
		c0.782-0.437,2.322-0.988,4.369-0.988c3.748,0,4.944,2.207,4.944,4.852v3.909c0,1.081,0.046,2.115,0.161,2.736H279.274z
		 M278.86,82.523c-1.839-0.023-3.265,0.414-3.265,1.771c0,0.896,0.598,1.333,1.379,1.333c0.874,0,1.587-0.574,1.817-1.287
		c0.046-0.184,0.069-0.391,0.069-0.598V82.523z"/>
	<path fill="#FFFFFF" d="M284.934,87.834c0.046-0.735,0.092-2.093,0.092-3.357V71.508h3.496v6.415h0.045
		c0.668-0.966,1.84-1.586,3.404-1.586c2.689,0,4.668,2.23,4.645,5.68c0,4.047-2.576,6.07-5.15,6.07
		c-1.311,0-2.576-0.482-3.381-1.816h-0.046l-0.138,1.563H284.934z M288.521,83.051c0,0.23,0.022,0.438,0.068,0.621
		c0.23,0.942,1.035,1.655,2.047,1.655c1.494,0,2.414-1.149,2.414-3.173c0-1.748-0.781-3.127-2.414-3.127
		c-0.943,0-1.816,0.712-2.047,1.725c-0.046,0.206-0.068,0.413-0.068,0.644V83.051z"/>
	<path fill="#FFFFFF" d="M298.757,84.776c0.644,0.392,1.978,0.851,3.013,0.851c1.057,0,1.494-0.367,1.494-0.942
		s-0.345-0.851-1.656-1.288c-2.322-0.781-3.219-2.046-3.195-3.38c0-2.093,1.793-3.679,4.576-3.679c1.311,0,2.482,0.299,3.173,0.644
		l-0.621,2.414c-0.506-0.275-1.472-0.644-2.438-0.644c-0.851,0-1.333,0.345-1.333,0.92c0,0.528,0.437,0.805,1.816,1.287
		c2.139,0.736,3.035,1.817,3.059,3.473c0,2.093-1.656,3.633-4.875,3.633c-1.473,0-2.783-0.321-3.634-0.781L298.757,84.776z"/>
	<path fill="#FFFFFF" d="M310.912,71.135v0.898h-1.045v2.764h-1.113v-2.764h-1.033v-0.898H310.912z M314.855,74.797l-0.066-1.61
		c-0.014-0.402,0-0.858-0.014-1.421h-0.066c-0.107,0.496-0.215,1.019-0.309,1.421l-0.376,1.543h-1.06l-0.336-1.556
		c-0.053-0.349-0.146-0.926-0.228-1.408h-0.067c0,0.496-0.014,1.006-0.026,1.421l-0.081,1.61h-1.045l0.228-3.662h1.717l0.241,0.898
		c0.066,0.282,0.121,0.577,0.215,1.181h0.014c0.094-0.456,0.174-0.818,0.268-1.181l0.269-0.898h1.597l0.201,3.662H314.855z"/>
</g>
</svg>
